%YAML 1.1
%TAG !u! tag:unity3d.com,2011:
--- !u!114 &11400000
MonoBehaviour:
  m_ObjectHideFlags: 0
  m_CorrespondingSourceObject: {fileID: 0}
  m_PrefabInstance: {fileID: 0}
  m_PrefabAsset: {fileID: 0}
  m_GameObject: {fileID: 0}
  m_Enabled: 1
  m_EditorHideFlags: 0
  m_Script: {fileID: 11500000, guid: bbb281ee3bf0b054c82ac2347e9e782c, type: 3}
  m_Name: Localization-String-Tables-Korean (ko)
  m_EditorClassIdentifier: 
  m_GroupName: Localization-String-Tables-Korean (ko)
  m_Data:
    m_SerializedData: []
  m_GUID: 5880cb2c9e4fd9844b101055f30cbcab
  m_SerializeEntries:
  - m_GUID: b28fc5e6207d848e7a76edc85677ec3d
    m_Address: ReasonsUX_ko
    m_ReadOnly: 1
    m_SerializedLabels:
    - Locale-ko
  m_ReadOnly: 1
  m_Settings: {fileID: 11400000, guid: 78bdf713d65ad406e94552981323526a, type: 2}
  m_SchemaSet:
    m_Schemas:
    - {fileID: 11400000, guid: f2b33a5a2bbc85244ac801a883d61e23, type: 2}
    - {fileID: 11400000, guid: 68960fb232ebeda4789bce7c5d7c01eb, type: 2}
