%YAML 1.1
%TAG !u! tag:unity3d.com,2011:
--- !u!1001 &4703999898575668778
PrefabInstance:
  m_ObjectHideFlags: 0
  serializedVersion: 2
  m_Modification:
    m_TransformParent: {fileID: 0}
    m_Modifications:
    - target: {fileID: -8679921383154817045, guid: 35592dc144ad5dd478650d0139d790f7, type: 3}
      propertyPath: m_RootOrder
      value: 0
      objectReference: {fileID: 0}
    - target: {fileID: -8679921383154817045, guid: 35592dc144ad5dd478650d0139d790f7, type: 3}
      propertyPath: m_LocalPosition.x
      value: 0
      objectReference: {fileID: 0}
    - target: {fileID: -8679921383154817045, guid: 35592dc144ad5dd478650d0139d790f7, type: 3}
      propertyPath: m_LocalPosition.y
      value: 0
      objectReference: {fileID: 0}
    - target: {fileID: -8679921383154817045, guid: 35592dc144ad5dd478650d0139d790f7, type: 3}
      propertyPath: m_LocalPosition.z
      value: 0
      objectReference: {fileID: 0}
    - target: {fileID: -8679921383154817045, guid: 35592dc144ad5dd478650d0139d790f7, type: 3}
      propertyPath: m_LocalRotation.w
      value: 1
      objectReference: {fileID: 0}
    - target: {fileID: -8679921383154817045, guid: 35592dc144ad5dd478650d0139d790f7, type: 3}
      propertyPath: m_LocalRotation.x
      value: 0
      objectReference: {fileID: 0}
    - target: {fileID: -8679921383154817045, guid: 35592dc144ad5dd478650d0139d790f7, type: 3}
      propertyPath: m_LocalRotation.y
      value: 0
      objectReference: {fileID: 0}
    - target: {fileID: -8679921383154817045, guid: 35592dc144ad5dd478650d0139d790f7, type: 3}
      propertyPath: m_LocalRotation.z
      value: 0
      objectReference: {fileID: 0}
    - target: {fileID: -8679921383154817045, guid: 35592dc144ad5dd478650d0139d790f7, type: 3}
      propertyPath: m_LocalEulerAnglesHint.x
      value: 0
      objectReference: {fileID: 0}
    - target: {fileID: -8679921383154817045, guid: 35592dc144ad5dd478650d0139d790f7, type: 3}
      propertyPath: m_LocalEulerAnglesHint.y
      value: 0
      objectReference: {fileID: 0}
    - target: {fileID: -8679921383154817045, guid: 35592dc144ad5dd478650d0139d790f7, type: 3}
      propertyPath: m_LocalEulerAnglesHint.z
      value: 0
      objectReference: {fileID: 0}
    - target: {fileID: -4826551227460008452, guid: 35592dc144ad5dd478650d0139d790f7, type: 3}
      propertyPath: m_Materials.Array.data[0]
      value: 
      objectReference: {fileID: 2100000, guid: ea1718977506d214dafd2d68edb697d6, type: 2}
    - target: {fileID: -1052657353227017334, guid: 35592dc144ad5dd478650d0139d790f7, type: 3}
      propertyPath: m_Materials.Array.data[0]
      value: 
      objectReference: {fileID: 2100000, guid: ea1718977506d214dafd2d68edb697d6, type: 2}
    - target: {fileID: -506362336235029669, guid: 35592dc144ad5dd478650d0139d790f7, type: 3}
      propertyPath: m_Materials.Array.data[0]
      value: 
      objectReference: {fileID: 2100000, guid: ea1718977506d214dafd2d68edb697d6, type: 2}
    - target: {fileID: 87613492747110982, guid: 35592dc144ad5dd478650d0139d790f7, type: 3}
      propertyPath: m_Materials.Array.data[0]
      value: 
      objectReference: {fileID: 2100000, guid: 276a70a4dab24bb44820986c4174879b, type: 2}
    - target: {fileID: 919132149155446097, guid: 35592dc144ad5dd478650d0139d790f7, type: 3}
      propertyPath: m_Name
      value: micro scope
      objectReference: {fileID: 0}
    - target: {fileID: 1415392168982919436, guid: 35592dc144ad5dd478650d0139d790f7, type: 3}
      propertyPath: m_Materials.Array.data[0]
      value: 
      objectReference: {fileID: 2100000, guid: 276a70a4dab24bb44820986c4174879b, type: 2}
    - target: {fileID: 2489374375243736565, guid: 35592dc144ad5dd478650d0139d790f7, type: 3}
      propertyPath: m_Materials.Array.data[0]
      value: 
      objectReference: {fileID: 2100000, guid: ea1718977506d214dafd2d68edb697d6, type: 2}
    - target: {fileID: 3823021888540425739, guid: 35592dc144ad5dd478650d0139d790f7, type: 3}
      propertyPath: m_Materials.Array.data[0]
      value: 
      objectReference: {fileID: 2100000, guid: 276a70a4dab24bb44820986c4174879b, type: 2}
    - target: {fileID: 6414552316925891683, guid: 35592dc144ad5dd478650d0139d790f7, type: 3}
      propertyPath: m_Materials.Array.data[0]
      value: 
      objectReference: {fileID: 2100000, guid: 276a70a4dab24bb44820986c4174879b, type: 2}
    - target: {fileID: 6604301300671577384, guid: 35592dc144ad5dd478650d0139d790f7, type: 3}
      propertyPath: m_Materials.Array.data[0]
      value: 
      objectReference: {fileID: 2100000, guid: 276a70a4dab24bb44820986c4174879b, type: 2}
    - target: {fileID: 8679644229298020710, guid: 35592dc144ad5dd478650d0139d790f7, type: 3}
      propertyPath: m_Materials.Array.data[0]
      value: 
      objectReference: {fileID: 2100000, guid: 276a70a4dab24bb44820986c4174879b, type: 2}
    m_RemovedComponents: []
  m_SourcePrefab: {fileID: 100100000, guid: 35592dc144ad5dd478650d0139d790f7, type: 3}
